…
#### How to

- We start with a grouped data frame, and nest it

```r
# create a nested data frame
by_country <- gapminder %>%
    group_by(continent, country) %>%
    nest()
print(by_country)

# A tibble: 142 x 3
# Groups:   country, continent [142]
   country     continent data
   <fct>       <fct>     <list>
 1 Afghanistan Asia      <tibble [12 × 4]>
 2 Albania     Europe    <tibble [12 × 4]>
 3 Algeria     Africa    <tibble [12 × 4]>
 4 Angola      Africa    <tibble [12 × 4]>
 5 Argentina   Americas  <tibble [12 × 4]>
 6 Australia   Oceania   <tibble [12 × 4]>
 7 Austria     Europe    <tibble [12 × 4]>
 8 Bahrain     Asia      <tibble [12 × 4]>
 9 Bangladesh  Asia      <tibble [12 × 4]>
10 Belgium     Europe    <tibble [12 × 4]>
# … with 132 more rows
```
…
by_country <- gapminder %>%
    group_by(continent, country) %>%                        # group
    nest() %>%                                              # nest
    mutate(mean_life_exp = map_dbl(data, ~mean(.$lifeExp)), # unnest with mutate+map_*
    life_exp_ci = map(data, ~gap_lifeExp_ci(., "mean")))    # making an intermediate list-column
print(by_country)

# A tibble: 142 x 5
# Groups:   country, continent [142]
   country     continent data              mean_life_exp life_exp_ci
   <fct>       <fct>     <list>                    <dbl> <list>
 1 Afghanistan Asia      <tibble [12 × 4]>          37.5 <tibble [1 × 2]>
 2 Albania     Europe    <tibble [12 × 4]>          68.4 <tibble [1 × 2]>
 3 Algeria     Africa    <tibble [12 × 4]>          59.0 <tibble [1 × 2]>
 4 Angola      Africa    <tibble [12 × 4]>          37.9 <tibble [1 × 2]>
 5 Argentina   Americas  <tibble [12 × 4]>          69.1 <tibble [1 × 2]>
 6 Australia   Oceania   <tibble [12 × 4]>          74.7 <tibble [1 × 2]>
 7 Austria     Europe    <tibble [12 × 4]>          73.1 <tibble [1 × 2]>
 8 Bahrain     Asia      <tibble [12 × 4]>          65.6 <tibble [1 × 2]>
 9 Bangladesh  Asia      <tibble [12 × 4]>          49.8 <tibble [1 × 2]>
10 Belgium     Europe    <tibble [12 × 4]>          73.6 <tibble [1 × 2]>
# … with 132 more rows
```

```r
# unnest the ci column
by_country %>%
    unnest(life_exp_ci) %>%         ## unnest() with column name to specify which column you would like to unnest.
    print()

# A tibble: 142 x 6
# Groups:   country, continent [142]
   country     continent data              mean_life_exp `2.5%` `97.5%`
   <fct>       <fct>     <list>                    <dbl>  <dbl>   <dbl>
 1 Afghanistan Asia      <tibble [12 × 4]>          37.5   34.4    40.3
 2 Albania     Europe    <tibble [12 × 4]>          68.4   64.8    71.7
 3 Algeria     Africa    <tibble [12 × 4]>          59.0   53.4    64.6
 4 Angola      Africa    <tibble [12 × 4]>          37.9   35.6    39.9
 5 Argentina   Americas  <tibble [12 × 4]>          69.1   66.9    71.2
 6 Australia   Oceania   <tibble [12 × 4]>          74.7   72.4    77.0
 7 Austria     Europe    <tibble [12 × 4]>          73.1   70.8    75.2
 8 Bahrain     Asia      <tibble [12 × 4]>          65.6   61.0    69.9
 9 Bangladesh  Asia      <tibble [12 × 4]>          49.8   45.0    54.6
10 Belgium     Europe    <tibble [12 × 4]>          73.6   71.5    75.6
# … with 132 more rows
```
…
